EESchema Schematic File Version 4
LIBS:SmartWatch Final-cache
EELAYER 29 0
EELAYER END
$Descr A4 11693 8268
encoding utf-8
Sheet 6 9
Title ""
Date ""
Rev ""
Comp ""
Comment1 ""
Comment2 ""
Comment3 ""
Comment4 ""
$EndDescr
$Comp
L Device:Crystal_Small Y?
U 1 1 5D3B5C3D
P 6000 3650
AR Path="/5D3B5C3D" Ref="Y?"  Part="1" 
AR Path="/5D3B4C3F/5D3B5C3D" Ref="Y1"  Part="1" 
F 0 "Y1" V 6046 3738 50  0000 L CNN
F 1 "ABS07-166-32.768KHZ-T" V 5955 3738 50  0000 L CNN
F 2 "Crystal:Crystal_SMD_2012-2Pin_2.0x1.2mm" H 6000 3650 50  0001 C CNN
F 3 "~" H 6000 3650 50  0001 C CNN
	1    6000 3650
	0    1    -1   0   
$EndComp
$Comp
L Timer:MCP7940N-xSN U?
U 1 1 5D3B5C43
P 5500 3650
AR Path="/5D3B5C43" Ref="U?"  Part="1" 
AR Path="/5D3B4C3F/5D3B5C43" Ref="U5"  Part="1" 
F 0 "U5" H 5500 3161 50  0000 C CNN
F 1 "MCP7940N-xSN" H 5500 3070 50  0000 C CNN
F 2 "Package_SO:SOIC-8-1EP_3.9x4.9mm_P1.27mm_EP2.41x3.3mm" H 5500 3650 50  0001 C CNN
F 3 "http://ww1.microchip.com/downloads/en/DeviceDoc/20005010F.pdf" H 5500 3650 50  0001 C CNN
	1    5500 3650
	1    0    0    -1  
$EndComp
Wire Wire Line
	6000 3750 5900 3750
Wire Wire Line
	6000 3550 5900 3550
Wire Wire Line
	5500 4050 5950 4050
Wire Wire Line
	5950 4050 5950 4250
$Comp
L power:GND #PWR?
U 1 1 5D3B5C4D
P 5950 4250
AR Path="/5D3B5C4D" Ref="#PWR?"  Part="1" 
AR Path="/5D3B4C3F/5D3B5C4D" Ref="#PWR0107"  Part="1" 
F 0 "#PWR0107" H 5950 4000 50  0001 C CNN
F 1 "GND" H 5955 4077 50  0000 C CNN
F 2 "" H 5950 4250 50  0001 C CNN
F 3 "" H 5950 4250 50  0001 C CNN
	1    5950 4250
	1    0    0    -1  
$EndComp
Wire Wire Line
	5600 3250 5600 3100
$Comp
L power:+BATT #PWR0145
U 1 1 5D3F116C
P 5600 3100
F 0 "#PWR0145" H 5600 2950 50  0001 C CNN
F 1 "+BATT" H 5615 3273 50  0000 C CNN
F 2 "" H 5600 3100 50  0001 C CNN
F 3 "" H 5600 3100 50  0001 C CNN
	1    5600 3100
	1    0    0    -1  
$EndComp
Wire Wire Line
	5500 3250 5500 3050
Wire Wire Line
	5500 3050 5450 3050
$Comp
L power:VDD #PWR0146
U 1 1 5D3F13C1
P 5450 3050
F 0 "#PWR0146" H 5450 2900 50  0001 C CNN
F 1 "VDD" H 5467 3223 50  0000 C CNN
F 2 "" H 5450 3050 50  0001 C CNN
F 3 "" H 5450 3050 50  0001 C CNN
	1    5450 3050
	1    0    0    -1  
$EndComp
Wire Wire Line
	5100 3450 4950 3450
Wire Wire Line
	5100 3550 5000 3550
Text GLabel 4950 3450 0    50   Input ~ 0
I2C3_SCL
Text GLabel 4950 3550 0    50   Input ~ 0
I2C3_SDA
Text GLabel 5100 3750 0    50   Input ~ 0
RTC_MFP
$Comp
L 100nf_fine:CC0603KRX7R7BB104 C17
U 1 1 5D3F1E70
P 5500 4750
F 0 "C17" V 5704 4878 50  0000 L CNN
F 1 "CC0603KRX7R7BB104" V 5795 4878 50  0000 L CNN
F 2 "CAPC1608X90N" H 5850 4800 50  0001 L CNN
F 3 "http://componentsearchengine.com/Datasheets/1/CC0603KRX7R7BB104.pdf" H 5850 4700 50  0001 L CNN
F 4 "CAPACITOR, 0603 100nF +/-10% 16V" H 5850 4600 50  0001 L CNN "Description"
F 5 "" H 5850 4500 50  0001 L CNN "Height"
F 6 "YAGEO (PHYCOMP)" H 5850 4400 50  0001 L CNN "Manufacturer_Name"
F 7 "CC0603KRX7R7BB104" H 5850 4300 50  0001 L CNN "Manufacturer_Part_Number"
F 8 "603-CC603KRX7R7BB104" H 5850 4200 50  0001 L CNN "Mouser Part Number"
F 9 "https://www.mouser.com/Search/Refine.aspx?Keyword=603-CC603KRX7R7BB104" H 5850 4100 50  0001 L CNN "Mouser Price/Stock"
F 10 "6698763" H 5850 4000 50  0001 L CNN "RS Part Number"
F 11 "http://uk.rs-online.com/web/p/products/6698763" H 5850 3900 50  0001 L CNN "RS Price/Stock"
	1    5500 4750
	0    1    1    0   
$EndComp
$Comp
L power:VDD #PWR0147
U 1 1 5D3F39B3
P 5500 4750
F 0 "#PWR0147" H 5500 4600 50  0001 C CNN
F 1 "VDD" H 5517 4923 50  0000 C CNN
F 2 "" H 5500 4750 50  0001 C CNN
F 3 "" H 5500 4750 50  0001 C CNN
	1    5500 4750
	1    0    0    -1  
$EndComp
$Comp
L power:GND #PWR0148
U 1 1 5D3F3B4A
P 5500 5250
F 0 "#PWR0148" H 5500 5000 50  0001 C CNN
F 1 "GND" H 5505 5077 50  0000 C CNN
F 2 "" H 5500 5250 50  0001 C CNN
F 3 "" H 5500 5250 50  0001 C CNN
	1    5500 5250
	1    0    0    -1  
$EndComp
$Comp
L 2k7:ERA2ARB272X R2
U 1 1 5D3E2517
P 5100 2750
F 0 "R2" V 5404 2838 50  0000 L CNN
F 1 "ERA2ARB272X" V 5495 2838 50  0000 L CNN
F 2 "2k7 ohm:RESC1005X40N" H 5650 2800 50  0001 L CNN
F 3 "https://industrial.panasonic.com/cdbs/www-data/pdf/RDA0000/AOA0000C237.pdf" H 5650 2700 50  0001 L CNN
F 4 "PANASONIC ELECTRONIC COMPONENTS - ERA2ARB272X - RES, THIN FILM, 2K7, 0.1%, 0.063W, 0402" H 5650 2600 50  0001 L CNN "Description"
F 5 "0.4" H 5650 2500 50  0001 L CNN "Height"
F 6 "Panasonic" H 5650 2400 50  0001 L CNN "Manufacturer_Name"
F 7 "ERA2ARB272X" H 5650 2300 50  0001 L CNN "Manufacturer_Part_Number"
F 8 "" H 5650 2200 50  0001 L CNN "Mouser Part Number"
F 9 "" H 5650 2100 50  0001 L CNN "Mouser Price/Stock"
F 10 "" H 5650 2000 50  0001 L CNN "RS Part Number"
F 11 "" H 5650 1900 50  0001 L CNN "RS Price/Stock"
	1    5100 2750
	0    1    1    0   
$EndComp
Connection ~ 5100 3450
$Comp
L power:VDD #PWR0149
U 1 1 5D3E3E5F
P 5100 2750
F 0 "#PWR0149" H 5100 2600 50  0001 C CNN
F 1 "VDD" H 5117 2923 50  0000 C CNN
F 2 "" H 5100 2750 50  0001 C CNN
F 3 "" H 5100 2750 50  0001 C CNN
	1    5100 2750
	1    0    0    -1  
$EndComp
$Comp
L 2k7:ERA2ARB272X R1
U 1 1 5D3E52C2
P 5000 2850
F 0 "R1" V 5304 2938 50  0000 L CNN
F 1 "ERA2ARB272X" V 5395 2938 50  0000 L CNN
F 2 "2k7 ohm:RESC1005X40N" H 5550 2900 50  0001 L CNN
F 3 "https://industrial.panasonic.com/cdbs/www-data/pdf/RDA0000/AOA0000C237.pdf" H 5550 2800 50  0001 L CNN
F 4 "PANASONIC ELECTRONIC COMPONENTS - ERA2ARB272X - RES, THIN FILM, 2K7, 0.1%, 0.063W, 0402" H 5550 2700 50  0001 L CNN "Description"
F 5 "0.4" H 5550 2600 50  0001 L CNN "Height"
F 6 "Panasonic" H 5550 2500 50  0001 L CNN "Manufacturer_Name"
F 7 "ERA2ARB272X" H 5550 2400 50  0001 L CNN "Manufacturer_Part_Number"
F 8 "" H 5550 2300 50  0001 L CNN "Mouser Part Number"
F 9 "" H 5550 2200 50  0001 L CNN "Mouser Price/Stock"
F 10 "" H 5550 2100 50  0001 L CNN "RS Part Number"
F 11 "" H 5550 2000 50  0001 L CNN "RS Price/Stock"
	1    5000 2850
	0    1    1    0   
$EndComp
Connection ~ 5000 3550
Wire Wire Line
	5000 3550 4950 3550
$Comp
L power:VDD #PWR0150
U 1 1 5D3E5E8A
P 5000 2850
F 0 "#PWR0150" H 5000 2700 50  0001 C CNN
F 1 "VDD" H 5017 3023 50  0000 C CNN
F 2 "" H 5000 2850 50  0001 C CNN
F 3 "" H 5000 2850 50  0001 C CNN
	1    5000 2850
	1    0    0    -1  
$EndComp
$Comp
L 0402_cap:CBR04C279B5GAC C18
U 1 1 5D41F4BB
P 6000 3550
F 0 "C18" H 6250 3815 50  0000 C CNN
F 1 "CBR04C279B5GAC" H 6250 3724 50  0000 C CNN
F 2 "0402_cap:CAPC1005X55N" H 6350 3600 50  0001 L CNN
F 3 "http://www.kemet.com/Lists/ProductCatalog/Attachments/490/KEM_C1030_CBR_SMD.pdf" H 6350 3500 50  0001 L CNN
F 4 "Kemet 0402 Capactior Chip" H 6350 3400 50  0001 L CNN "Description"
F 5 "0.55" H 6350 3300 50  0001 L CNN "Height"
F 6 "Kemet" H 6350 3200 50  0001 L CNN "Manufacturer_Name"
F 7 "CBR04C279B5GAC" H 6350 3100 50  0001 L CNN "Manufacturer_Part_Number"
F 8 "80-CBR04C279B5G" H 6350 3000 50  0001 L CNN "Mouser Part Number"
F 9 "https://www.mouser.com/Search/Refine.aspx?Keyword=80-CBR04C279B5G" H 6350 2900 50  0001 L CNN "Mouser Price/Stock"
F 10 "" H 6350 2800 50  0001 L CNN "RS Part Number"
F 11 "" H 6350 2700 50  0001 L CNN "RS Price/Stock"
	1    6000 3550
	1    0    0    -1  
$EndComp
Connection ~ 6000 3550
$Comp
L 0402_cap:CBR04C279B5GAC C19
U 1 1 5D421BCE
P 6000 3750
F 0 "C19" H 6250 4015 50  0000 C CNN
F 1 "CBR04C279B5GAC" H 6250 3924 50  0000 C CNN
F 2 "CAPC1005X55N" H 6350 3800 50  0001 L CNN
F 3 "http://www.kemet.com/Lists/ProductCatalog/Attachments/490/KEM_C1030_CBR_SMD.pdf" H 6350 3700 50  0001 L CNN
F 4 "Kemet 0402 Capactior Chip" H 6350 3600 50  0001 L CNN "Description"
F 5 "0.55" H 6350 3500 50  0001 L CNN "Height"
F 6 "Kemet" H 6350 3400 50  0001 L CNN "Manufacturer_Name"
F 7 "CBR04C279B5GAC" H 6350 3300 50  0001 L CNN "Manufacturer_Part_Number"
F 8 "80-CBR04C279B5G" H 6350 3200 50  0001 L CNN "Mouser Part Number"
F 9 "https://www.mouser.com/Search/Refine.aspx?Keyword=80-CBR04C279B5G" H 6350 3100 50  0001 L CNN "Mouser Price/Stock"
F 10 "" H 6350 3000 50  0001 L CNN "RS Part Number"
F 11 "" H 6350 2900 50  0001 L CNN "RS Price/Stock"
	1    6000 3750
	1    0    0    -1  
$EndComp
Connection ~ 6000 3750
$Comp
L power:GND #PWR0157
U 1 1 5D42273C
P 6500 3750
F 0 "#PWR0157" H 6500 3500 50  0001 C CNN
F 1 "GND" V 6505 3622 50  0000 R CNN
F 2 "" H 6500 3750 50  0001 C CNN
F 3 "" H 6500 3750 50  0001 C CNN
	1    6500 3750
	0    -1   -1   0   
$EndComp
$Comp
L power:GND #PWR0158
U 1 1 5D422CC2
P 6500 3550
F 0 "#PWR0158" H 6500 3300 50  0001 C CNN
F 1 "GND" V 6505 3422 50  0000 R CNN
F 2 "" H 6500 3550 50  0001 C CNN
F 3 "" H 6500 3550 50  0001 C CNN
	1    6500 3550
	0    -1   -1   0   
$EndComp
Wire Notes Line
	4050 2450 7450 2450
Wire Notes Line
	7450 2450 7450 5700
Wire Notes Line
	7450 5700 4050 5700
Wire Notes Line
	4050 5700 4050 2450
Text Notes 5650 2400 0    50   ~ 0
RTC
$EndSCHEMATC
