EESchema Schematic File Version 4
LIBS:SmartWatch Final-cache
EELAYER 29 0
EELAYER END
$Descr A4 11693 8268
encoding utf-8
Sheet 1 9
Title ""
Date ""
Rev ""
Comp ""
Comment1 ""
Comment2 ""
Comment3 ""
Comment4 ""
$EndDescr
$Sheet
S 600  6900 900  750 
U 5D363D54
F0 "POWER" 50
F1 "POWER.sch" 50
$EndSheet
$Sheet
S 1750 6900 850  750 
U 5D3A7172
F0 "OLED" 50
F1 "OLED.sch" 50
$EndSheet
$Sheet
S 2950 6950 850  700 
U 5D3B16F5
F0 "IMU" 50
F1 "IMU.sch" 50
$EndSheet
$Sheet
S 4150 6950 850  700 
U 5D3B3262
F0 "Bluetooth" 50
F1 "Bluetooth.sch" 50
$EndSheet
$Sheet
S 600  5850 900  800 
U 5D3B4C3F
F0 "RTC" 50
F1 "RTC.sch" 50
$EndSheet
$Comp
L 100nF:GRM022R61A104ME01L C1
U 1 1 5D3B7B3E
P 8100 1450
F 0 "C1" H 8350 1715 50  0000 C CNN
F 1 "GRM022R61A104ME01L" H 8350 1624 50  0000 C CNN
F 2 "100nF:CAPC0402X22N" H 8450 1500 50  0001 L CNN
F 3 "https://componentsearchengine.com/Datasheets/1/GRM022R61A104ME01L.pdf" H 8450 1400 50  0001 L CNN
F 4 "Multilayer Ceramic Capacitors MLCC - SMD/SMT" H 8450 1300 50  0001 L CNN "Description"
F 5 "0.22" H 8450 1200 50  0001 L CNN "Height"
F 6 "Murata Electronics" H 8450 1100 50  0001 L CNN "Manufacturer_Name"
F 7 "GRM022R61A104ME01L" H 8450 1000 50  0001 L CNN "Manufacturer_Part_Number"
F 8 "81-GRM022R61A104ME1L" H 8450 900 50  0001 L CNN "Mouser Part Number"
F 9 "https://www.mouser.com/Search/Refine.aspx?Keyword=81-GRM022R61A104ME1L" H 8450 800 50  0001 L CNN "Mouser Price/Stock"
F 10 "" H 8450 700 50  0001 L CNN "RS Part Number"
F 11 "" H 8450 600 50  0001 L CNN "RS Price/Stock"
	1    8100 1450
	0    -1   -1   0   
$EndComp
$Comp
L 100nF:GRM022R61A104ME01L C2
U 1 1 5D3BC7FE
P 8500 1450
F 0 "C2" H 8750 1715 50  0000 C CNN
F 1 "GRM022R61A104ME01L" H 8750 1624 50  0000 C CNN
F 2 "100nF:CAPC0402X22N" H 8850 1500 50  0001 L CNN
F 3 "https://componentsearchengine.com/Datasheets/1/GRM022R61A104ME01L.pdf" H 8850 1400 50  0001 L CNN
F 4 "Multilayer Ceramic Capacitors MLCC - SMD/SMT" H 8850 1300 50  0001 L CNN "Description"
F 5 "0.22" H 8850 1200 50  0001 L CNN "Height"
F 6 "Murata Electronics" H 8850 1100 50  0001 L CNN "Manufacturer_Name"
F 7 "GRM022R61A104ME01L" H 8850 1000 50  0001 L CNN "Manufacturer_Part_Number"
F 8 "81-GRM022R61A104ME1L" H 8850 900 50  0001 L CNN "Mouser Part Number"
F 9 "https://www.mouser.com/Search/Refine.aspx?Keyword=81-GRM022R61A104ME1L" H 8850 800 50  0001 L CNN "Mouser Price/Stock"
F 10 "" H 8850 700 50  0001 L CNN "RS Part Number"
F 11 "" H 8850 600 50  0001 L CNN "RS Price/Stock"
	1    8500 1450
	0    -1   -1   0   
$EndComp
$Comp
L 100nF:GRM022R61A104ME01L C3
U 1 1 5D3BD5EE
P 8900 1450
F 0 "C3" H 9150 1715 50  0000 C CNN
F 1 "GRM022R61A104ME01L" H 9150 1624 50  0000 C CNN
F 2 "100nF:CAPC0402X22N" H 9250 1500 50  0001 L CNN
F 3 "https://componentsearchengine.com/Datasheets/1/GRM022R61A104ME01L.pdf" H 9250 1400 50  0001 L CNN
F 4 "Multilayer Ceramic Capacitors MLCC - SMD/SMT" H 9250 1300 50  0001 L CNN "Description"
F 5 "0.22" H 9250 1200 50  0001 L CNN "Height"
F 6 "Murata Electronics" H 9250 1100 50  0001 L CNN "Manufacturer_Name"
F 7 "GRM022R61A104ME01L" H 9250 1000 50  0001 L CNN "Manufacturer_Part_Number"
F 8 "81-GRM022R61A104ME1L" H 9250 900 50  0001 L CNN "Mouser Part Number"
F 9 "https://www.mouser.com/Search/Refine.aspx?Keyword=81-GRM022R61A104ME1L" H 9250 800 50  0001 L CNN "Mouser Price/Stock"
F 10 "" H 9250 700 50  0001 L CNN "RS Part Number"
F 11 "" H 9250 600 50  0001 L CNN "RS Price/Stock"
	1    8900 1450
	0    -1   -1   0   
$EndComp
$Comp
L 100nF:GRM022R61A104ME01L C4
U 1 1 5D3BE5EB
P 9300 1450
F 0 "C4" H 9550 1715 50  0000 C CNN
F 1 "GRM022R61A104ME01L" H 9550 1624 50  0000 C CNN
F 2 "100nF:CAPC0402X22N" H 9650 1500 50  0001 L CNN
F 3 "https://componentsearchengine.com/Datasheets/1/GRM022R61A104ME01L.pdf" H 9650 1400 50  0001 L CNN
F 4 "Multilayer Ceramic Capacitors MLCC - SMD/SMT" H 9650 1300 50  0001 L CNN "Description"
F 5 "0.22" H 9650 1200 50  0001 L CNN "Height"
F 6 "Murata Electronics" H 9650 1100 50  0001 L CNN "Manufacturer_Name"
F 7 "GRM022R61A104ME01L" H 9650 1000 50  0001 L CNN "Manufacturer_Part_Number"
F 8 "81-GRM022R61A104ME1L" H 9650 900 50  0001 L CNN "Mouser Part Number"
F 9 "https://www.mouser.com/Search/Refine.aspx?Keyword=81-GRM022R61A104ME1L" H 9650 800 50  0001 L CNN "Mouser Price/Stock"
F 10 "" H 9650 700 50  0001 L CNN "RS Part Number"
F 11 "" H 9650 600 50  0001 L CNN "RS Price/Stock"
	1    9300 1450
	0    -1   -1   0   
$EndComp
$Comp
L 100nF:GRM022R61A104ME01L C5
U 1 1 5D3BF211
P 9700 1450
F 0 "C5" H 9950 1715 50  0000 C CNN
F 1 "GRM022R61A104ME01L" H 9950 1624 50  0000 C CNN
F 2 "100nF:CAPC0402X22N" H 10050 1500 50  0001 L CNN
F 3 "https://componentsearchengine.com/Datasheets/1/GRM022R61A104ME01L.pdf" H 10050 1400 50  0001 L CNN
F 4 "Multilayer Ceramic Capacitors MLCC - SMD/SMT" H 10050 1300 50  0001 L CNN "Description"
F 5 "0.22" H 10050 1200 50  0001 L CNN "Height"
F 6 "Murata Electronics" H 10050 1100 50  0001 L CNN "Manufacturer_Name"
F 7 "GRM022R61A104ME01L" H 10050 1000 50  0001 L CNN "Manufacturer_Part_Number"
F 8 "81-GRM022R61A104ME1L" H 10050 900 50  0001 L CNN "Mouser Part Number"
F 9 "https://www.mouser.com/Search/Refine.aspx?Keyword=81-GRM022R61A104ME1L" H 10050 800 50  0001 L CNN "Mouser Price/Stock"
F 10 "" H 10050 700 50  0001 L CNN "RS Part Number"
F 11 "" H 10050 600 50  0001 L CNN "RS Price/Stock"
	1    9700 1450
	0    -1   -1   0   
$EndComp
$Comp
L 100nF:GRM022R61A104ME01L C6
U 1 1 5D3BFE5C
P 10100 1450
F 0 "C6" H 10350 1715 50  0000 C CNN
F 1 "GRM022R61A104ME01L" H 10350 1624 50  0000 C CNN
F 2 "100nF:CAPC0402X22N" H 10450 1500 50  0001 L CNN
F 3 "https://componentsearchengine.com/Datasheets/1/GRM022R61A104ME01L.pdf" H 10450 1400 50  0001 L CNN
F 4 "Multilayer Ceramic Capacitors MLCC - SMD/SMT" H 10450 1300 50  0001 L CNN "Description"
F 5 "0.22" H 10450 1200 50  0001 L CNN "Height"
F 6 "Murata Electronics" H 10450 1100 50  0001 L CNN "Manufacturer_Name"
F 7 "GRM022R61A104ME01L" H 10450 1000 50  0001 L CNN "Manufacturer_Part_Number"
F 8 "81-GRM022R61A104ME1L" H 10450 900 50  0001 L CNN "Mouser Part Number"
F 9 "https://www.mouser.com/Search/Refine.aspx?Keyword=81-GRM022R61A104ME1L" H 10450 800 50  0001 L CNN "Mouser Price/Stock"
F 10 "" H 10450 700 50  0001 L CNN "RS Part Number"
F 11 "" H 10450 600 50  0001 L CNN "RS Price/Stock"
	1    10100 1450
	0    -1   -1   0   
$EndComp
$Comp
L 100nF:GRM022R61A104ME01L C7
U 1 1 5D3C08F6
P 10500 1450
F 0 "C7" H 10750 1715 50  0000 C CNN
F 1 "GRM022R61A104ME01L" H 10750 1624 50  0000 C CNN
F 2 "100nF:CAPC0402X22N" H 10850 1500 50  0001 L CNN
F 3 "https://componentsearchengine.com/Datasheets/1/GRM022R61A104ME01L.pdf" H 10850 1400 50  0001 L CNN
F 4 "Multilayer Ceramic Capacitors MLCC - SMD/SMT" H 10850 1300 50  0001 L CNN "Description"
F 5 "0.22" H 10850 1200 50  0001 L CNN "Height"
F 6 "Murata Electronics" H 10850 1100 50  0001 L CNN "Manufacturer_Name"
F 7 "GRM022R61A104ME01L" H 10850 1000 50  0001 L CNN "Manufacturer_Part_Number"
F 8 "81-GRM022R61A104ME1L" H 10850 900 50  0001 L CNN "Mouser Part Number"
F 9 "https://www.mouser.com/Search/Refine.aspx?Keyword=81-GRM022R61A104ME1L" H 10850 800 50  0001 L CNN "Mouser Price/Stock"
F 10 "" H 10850 700 50  0001 L CNN "RS Part Number"
F 11 "" H 10850 600 50  0001 L CNN "RS Price/Stock"
	1    10500 1450
	0    -1   -1   0   
$EndComp
$Comp
L power:VDD #PWR0112
U 1 1 5D3C0DB2
P 8100 950
F 0 "#PWR0112" H 8100 800 50  0001 C CNN
F 1 "VDD" H 8117 1123 50  0000 C CNN
F 2 "" H 8100 950 50  0001 C CNN
F 3 "" H 8100 950 50  0001 C CNN
	1    8100 950 
	1    0    0    -1  
$EndComp
$Comp
L power:VDD #PWR0113
U 1 1 5D3C1593
P 8500 950
F 0 "#PWR0113" H 8500 800 50  0001 C CNN
F 1 "VDD" H 8517 1123 50  0000 C CNN
F 2 "" H 8500 950 50  0001 C CNN
F 3 "" H 8500 950 50  0001 C CNN
	1    8500 950 
	1    0    0    -1  
$EndComp
$Comp
L power:VDD #PWR0114
U 1 1 5D3C1A51
P 8900 950
F 0 "#PWR0114" H 8900 800 50  0001 C CNN
F 1 "VDD" H 8917 1123 50  0000 C CNN
F 2 "" H 8900 950 50  0001 C CNN
F 3 "" H 8900 950 50  0001 C CNN
	1    8900 950 
	1    0    0    -1  
$EndComp
$Comp
L power:VDD #PWR0115
U 1 1 5D3C1B34
P 9300 950
F 0 "#PWR0115" H 9300 800 50  0001 C CNN
F 1 "VDD" H 9317 1123 50  0000 C CNN
F 2 "" H 9300 950 50  0001 C CNN
F 3 "" H 9300 950 50  0001 C CNN
	1    9300 950 
	1    0    0    -1  
$EndComp
$Comp
L power:VDD #PWR0116
U 1 1 5D3C2329
P 9700 950
F 0 "#PWR0116" H 9700 800 50  0001 C CNN
F 1 "VDD" H 9717 1123 50  0000 C CNN
F 2 "" H 9700 950 50  0001 C CNN
F 3 "" H 9700 950 50  0001 C CNN
	1    9700 950 
	1    0    0    -1  
$EndComp
$Comp
L power:VDD #PWR0117
U 1 1 5D3C23CE
P 10100 950
F 0 "#PWR0117" H 10100 800 50  0001 C CNN
F 1 "VDD" H 10117 1123 50  0000 C CNN
F 2 "" H 10100 950 50  0001 C CNN
F 3 "" H 10100 950 50  0001 C CNN
	1    10100 950 
	1    0    0    -1  
$EndComp
$Comp
L power:VDD #PWR0118
U 1 1 5D3C27C8
P 10500 950
F 0 "#PWR0118" H 10500 800 50  0001 C CNN
F 1 "VDD" H 10517 1123 50  0000 C CNN
F 2 "" H 10500 950 50  0001 C CNN
F 3 "" H 10500 950 50  0001 C CNN
	1    10500 950 
	1    0    0    -1  
$EndComp
$Comp
L power:GND #PWR0119
U 1 1 5D3C2B16
P 8100 1450
F 0 "#PWR0119" H 8100 1200 50  0001 C CNN
F 1 "GND" H 8105 1277 50  0000 C CNN
F 2 "" H 8100 1450 50  0001 C CNN
F 3 "" H 8100 1450 50  0001 C CNN
	1    8100 1450
	1    0    0    -1  
$EndComp
$Comp
L power:GND #PWR0120
U 1 1 5D3C3378
P 8500 1450
F 0 "#PWR0120" H 8500 1200 50  0001 C CNN
F 1 "GND" H 8505 1277 50  0000 C CNN
F 2 "" H 8500 1450 50  0001 C CNN
F 3 "" H 8500 1450 50  0001 C CNN
	1    8500 1450
	1    0    0    -1  
$EndComp
$Comp
L power:GND #PWR0121
U 1 1 5D3C366A
P 8900 1450
F 0 "#PWR0121" H 8900 1200 50  0001 C CNN
F 1 "GND" H 8905 1277 50  0000 C CNN
F 2 "" H 8900 1450 50  0001 C CNN
F 3 "" H 8900 1450 50  0001 C CNN
	1    8900 1450
	1    0    0    -1  
$EndComp
$Comp
L power:GND #PWR0122
U 1 1 5D3C3979
P 9300 1450
F 0 "#PWR0122" H 9300 1200 50  0001 C CNN
F 1 "GND" H 9305 1277 50  0000 C CNN
F 2 "" H 9300 1450 50  0001 C CNN
F 3 "" H 9300 1450 50  0001 C CNN
	1    9300 1450
	1    0    0    -1  
$EndComp
$Comp
L power:GND #PWR0123
U 1 1 5D3C3E9C
P 9700 1450
F 0 "#PWR0123" H 9700 1200 50  0001 C CNN
F 1 "GND" H 9705 1277 50  0000 C CNN
F 2 "" H 9700 1450 50  0001 C CNN
F 3 "" H 9700 1450 50  0001 C CNN
	1    9700 1450
	1    0    0    -1  
$EndComp
$Comp
L power:GND #PWR0124
U 1 1 5D3C41D4
P 10100 1450
F 0 "#PWR0124" H 10100 1200 50  0001 C CNN
F 1 "GND" H 10105 1277 50  0000 C CNN
F 2 "" H 10100 1450 50  0001 C CNN
F 3 "" H 10100 1450 50  0001 C CNN
	1    10100 1450
	1    0    0    -1  
$EndComp
$Comp
L power:GND #PWR0125
U 1 1 5D3C4513
P 10500 1450
F 0 "#PWR0125" H 10500 1200 50  0001 C CNN
F 1 "GND" H 10505 1277 50  0000 C CNN
F 2 "" H 10500 1450 50  0001 C CNN
F 3 "" H 10500 1450 50  0001 C CNN
	1    10500 1450
	1    0    0    -1  
$EndComp
Text Notes 8850 600  0    50   ~ 0
Decoupling capactiors
$Comp
L power:GND #PWR0127
U 1 1 5D3D35CF
P 10900 1450
F 0 "#PWR0127" H 10900 1200 50  0001 C CNN
F 1 "GND" H 10905 1277 50  0000 C CNN
F 2 "" H 10900 1450 50  0001 C CNN
F 3 "" H 10900 1450 50  0001 C CNN
	1    10900 1450
	1    0    0    -1  
$EndComp
$Comp
L 100nF:GRM022R61A104ME01L C8
U 1 1 5D3D35C3
P 10900 1450
F 0 "C8" H 11150 1715 50  0000 C CNN
F 1 "GRM022R61A104ME01L" H 11150 1624 50  0000 C CNN
F 2 "100nF:CAPC0402X22N" H 11250 1500 50  0001 L CNN
F 3 "https://componentsearchengine.com/Datasheets/1/GRM022R61A104ME01L.pdf" H 11250 1400 50  0001 L CNN
F 4 "Multilayer Ceramic Capacitors MLCC - SMD/SMT" H 11250 1300 50  0001 L CNN "Description"
F 5 "0.22" H 11250 1200 50  0001 L CNN "Height"
F 6 "Murata Electronics" H 11250 1100 50  0001 L CNN "Manufacturer_Name"
F 7 "GRM022R61A104ME01L" H 11250 1000 50  0001 L CNN "Manufacturer_Part_Number"
F 8 "81-GRM022R61A104ME1L" H 11250 900 50  0001 L CNN "Mouser Part Number"
F 9 "https://www.mouser.com/Search/Refine.aspx?Keyword=81-GRM022R61A104ME1L" H 11250 800 50  0001 L CNN "Mouser Price/Stock"
F 10 "" H 11250 700 50  0001 L CNN "RS Part Number"
F 11 "" H 11250 600 50  0001 L CNN "RS Price/Stock"
	1    10900 1450
	0    -1   -1   0   
$EndComp
$Comp
L power:VDD #PWR0126
U 1 1 5D3D35C9
P 10900 950
F 0 "#PWR0126" H 10900 800 50  0001 C CNN
F 1 "VDD" H 10917 1123 50  0000 C CNN
F 2 "" H 10900 950 50  0001 C CNN
F 3 "" H 10900 950 50  0001 C CNN
	1    10900 950 
	1    0    0    -1  
$EndComp
$Comp
L power:GND #PWR0101
U 1 1 5D377760
P 10850 5450
F 0 "#PWR0101" H 10850 5200 50  0001 C CNN
F 1 "GND" H 10855 5277 50  0000 C CNN
F 2 "" H 10850 5450 50  0001 C CNN
F 3 "" H 10850 5450 50  0001 C CNN
	1    10850 5450
	1    0    0    -1  
$EndComp
Wire Wire Line
	10850 4350 10850 5450
Connection ~ 10850 4350
Wire Wire Line
	10850 4250 10850 4350
Wire Wire Line
	10500 4350 10850 4350
Connection ~ 10850 4250
Wire Wire Line
	10500 4250 10850 4250
Wire Wire Line
	10850 4150 10850 4250
Connection ~ 10850 4150
Wire Wire Line
	10500 4150 10850 4150
Wire Wire Line
	10850 4050 10850 4150
Connection ~ 10850 4050
Wire Wire Line
	10500 4050 10850 4050
Wire Wire Line
	10850 3950 10850 4050
Connection ~ 10850 3950
Wire Wire Line
	10500 3950 10850 3950
Wire Wire Line
	10850 3850 10850 3950
Connection ~ 10850 3850
Wire Wire Line
	10500 3850 10850 3850
Wire Wire Line
	10850 3750 10850 3850
Connection ~ 10850 3750
Wire Wire Line
	10500 3750 10850 3750
Wire Wire Line
	10850 3650 10850 3750
Connection ~ 10850 3650
Wire Wire Line
	10500 3650 10850 3650
Wire Wire Line
	10850 3550 10850 3650
Wire Wire Line
	10500 3550 10850 3550
$Comp
L MCU_ST_STM32L4+:STM32L4R9ZIJx U1
U 1 1 5D3AAB62
P 6900 3950
F 0 "U1" H 6850 261 50  0000 C CNN
F 1 "STM32L4R9ZIJx" H 6850 170 50  0000 C CNN
F 2 "Package_BGA:UFBGA-144_10x10mm_Layout12x12_P0.8mm" H 5800 550 50  0001 R CNN
F 3 "http://www.st.com/st-web-ui/static/active/en/resource/technical/document/datasheet/DM00366448.pdf" H 6900 3950 50  0001 C CNN
	1    6900 3950
	0    -1   -1   0   
$EndComp
Wire Wire Line
	3300 3650 2950 3650
Wire Wire Line
	2950 3650 2950 2300
Wire Wire Line
	3300 4250 2950 4250
Wire Wire Line
	2950 4250 2950 4150
Connection ~ 2950 3650
Wire Wire Line
	3300 4150 2950 4150
Connection ~ 2950 4150
Wire Wire Line
	2950 4150 2950 4050
Wire Wire Line
	3300 4050 2950 4050
Connection ~ 2950 4050
Wire Wire Line
	2950 4050 2950 3950
Wire Wire Line
	3300 3950 2950 3950
Connection ~ 2950 3950
Wire Wire Line
	2950 3950 2950 3850
Wire Wire Line
	3300 3850 2950 3850
Connection ~ 2950 3850
Wire Wire Line
	2950 3850 2950 3750
Wire Wire Line
	3300 3750 2950 3750
Connection ~ 2950 3750
Wire Wire Line
	2950 3750 2950 3650
$Comp
L power:VDD #PWR0106
U 1 1 5D38526C
P 2950 2300
F 0 "#PWR0106" H 2950 2150 50  0001 C CNN
F 1 "VDD" H 2967 2473 50  0000 C CNN
F 2 "" H 2950 2300 50  0001 C CNN
F 3 "" H 2950 2300 50  0001 C CNN
	1    2950 2300
	1    0    0    -1  
$EndComp
Text GLabel 6100 2750 1    50   Input ~ 0
I2C1_SCL
Text GLabel 6200 2750 1    50   Input ~ 0
I2C1_SDA
$Comp
L Beads:BK1608TS601-T FB1
U 1 1 5D3B6224
P 1000 3550
F 0 "FB1" H 1400 3815 50  0000 C CNN
F 1 "BK1608TS601-T" H 1400 3724 50  0000 C CNN
F 2 "Beads:BEADC1608X95N" H 1650 3650 50  0001 L CNN
F 3 "https://www.mouser.com/datasheet/2/396/mlci07_e-1396618.pdf" H 1650 3550 50  0001 L CNN
F 4 "Taiyo Yuden Ferrite Bead (Chip Bead), 1.6 x 0.8 x 0.8mm (0603), 600 impedance at 100 MHz" H 1650 3450 50  0001 L CNN "Description"
F 5 "0.95" H 1650 3350 50  0001 L CNN "Height"
F 6 "TAIYO YUDEN" H 1650 3250 50  0001 L CNN "Manufacturer_Name"
F 7 "BK1608TS601-T" H 1650 3150 50  0001 L CNN "Manufacturer_Part_Number"
F 8 "963-BK1608TS601-T" H 1650 3050 50  0001 L CNN "Mouser Part Number"
F 9 "https://www.mouser.com/Search/Refine.aspx?Keyword=963-BK1608TS601-T" H 1650 2950 50  0001 L CNN "Mouser Price/Stock"
F 10 "6302532" H 1650 2850 50  0001 L CNN "RS Part Number"
F 11 "https://uk.rs-online.com/web/p/products/6302532" H 1650 2750 50  0001 L CNN "RS Price/Stock"
	1    1000 3550
	1    0    0    -1  
$EndComp
$Comp
L 22uF:GRM31CR61C226KE15K C14
U 1 1 5D3BB11F
P 1800 3550
F 0 "C14" V 2004 3678 50  0000 L CNN
F 1 "GRM31CR61C226KE15K" V 2095 3678 50  0000 L CNN
F 2 "22uF:CAPC3216X180N" H 2150 3600 50  0001 L CNN
F 3 "http://www.murata.com/~/media/webrenewal/support/library/catalog/products/capacitor/mlcc/c02e.pdf" H 2150 3500 50  0001 L CNN
F 4 "Murata 1206 GRM 22uF Ceramic Multilayer Capacitor, 16 V, +85C, X5R Dielectric, +/-10% SMD" H 2150 3400 50  0001 L CNN "Description"
F 5 "1.8" H 2150 3300 50  0001 L CNN "Height"
F 6 "Murata Electronics" H 2150 3200 50  0001 L CNN "Manufacturer_Name"
F 7 "GRM31CR61C226KE15K" H 2150 3100 50  0001 L CNN "Manufacturer_Part_Number"
F 8 "81-GRM31CR61C226KE5K" H 2150 3000 50  0001 L CNN "Mouser Part Number"
F 9 "https://www.mouser.com/Search/Refine.aspx?Keyword=81-GRM31CR61C226KE5K" H 2150 2900 50  0001 L CNN "Mouser Price/Stock"
F 10 "8202857P" H 2150 2800 50  0001 L CNN "RS Part Number"
F 11 "http://uk.rs-online.com/web/p/products/8202857P" H 2150 2700 50  0001 L CNN "RS Price/Stock"
	1    1800 3550
	0    1    1    0   
$EndComp
$Comp
L 100nf_fine:CC0603KRX7R7BB104 C15
U 1 1 5D3BCCD6
P 2000 3550
F 0 "C15" V 2204 3678 50  0000 L CNN
F 1 "CC0603KRX7R7BB104" V 2295 3678 50  0000 L CNN
F 2 "CAPC1608X90N" H 2350 3600 50  0001 L CNN
F 3 "http://componentsearchengine.com/Datasheets/1/CC0603KRX7R7BB104.pdf" H 2350 3500 50  0001 L CNN
F 4 "CAPACITOR, 0603 100nF +/-10% 16V" H 2350 3400 50  0001 L CNN "Description"
F 5 "" H 2350 3300 50  0001 L CNN "Height"
F 6 "YAGEO (PHYCOMP)" H 2350 3200 50  0001 L CNN "Manufacturer_Name"
F 7 "CC0603KRX7R7BB104" H 2350 3100 50  0001 L CNN "Manufacturer_Part_Number"
F 8 "603-CC603KRX7R7BB104" H 2350 3000 50  0001 L CNN "Mouser Part Number"
F 9 "https://www.mouser.com/Search/Refine.aspx?Keyword=603-CC603KRX7R7BB104" H 2350 2900 50  0001 L CNN "Mouser Price/Stock"
F 10 "6698763" H 2350 2800 50  0001 L CNN "RS Part Number"
F 11 "http://uk.rs-online.com/web/p/products/6698763" H 2350 2700 50  0001 L CNN "RS Price/Stock"
	1    2000 3550
	0    1    1    0   
$EndComp
Wire Wire Line
	1800 3550 2000 3550
Connection ~ 1800 3550
Wire Wire Line
	2000 3550 3300 3550
Connection ~ 2000 3550
$Comp
L power:VDD #PWR0135
U 1 1 5D3C3687
P 1000 3550
F 0 "#PWR0135" H 1000 3400 50  0001 C CNN
F 1 "VDD" H 1017 3723 50  0000 C CNN
F 2 "" H 1000 3550 50  0001 C CNN
F 3 "" H 1000 3550 50  0001 C CNN
	1    1000 3550
	1    0    0    -1  
$EndComp
$Comp
L power:GND #PWR0136
U 1 1 5D3C3CC9
P 1800 4050
F 0 "#PWR0136" H 1800 3800 50  0001 C CNN
F 1 "GND" H 1805 3877 50  0000 C CNN
F 2 "" H 1800 4050 50  0001 C CNN
F 3 "" H 1800 4050 50  0001 C CNN
	1    1800 4050
	1    0    0    -1  
$EndComp
$Comp
L power:GND #PWR0137
U 1 1 5D3C4473
P 2000 4050
F 0 "#PWR0137" H 2000 3800 50  0001 C CNN
F 1 "GND" H 2005 3877 50  0000 C CNN
F 2 "" H 2000 4050 50  0001 C CNN
F 3 "" H 2000 4050 50  0001 C CNN
	1    2000 4050
	1    0    0    -1  
$EndComp
Wire Notes Line
	11050 1700 11050 700 
Wire Notes Line
	11050 700  7750 700 
Wire Notes Line
	7750 700  7750 1700
Wire Notes Line
	7750 1700 11100 1700
$Sheet
S 1750 5850 950  850 
U 5D3CC160
F0 "USB" 50
F1 "USB.sch" 50
$EndSheet
$Sheet
S 4150 5900 800  750 
U 5D3D2906
F0 "Temp_humidity" 50
F1 "TEMPERATURE_HUMIDITY.sch" 50
$EndSheet
$Sheet
S 2950 5850 850  850 
U 5D3CD50A
F0 "Charge_fuelgauge" 50
F1 "CHARGE_GAUGE.sch" 50
$EndSheet
Wire Wire Line
	4600 5250 4600 5350
Wire Wire Line
	4600 5350 4700 5350
Text GLabel 4700 5350 2    50   Input ~ 0
DSI_D0N
Wire Wire Line
	4500 5250 4500 5450
Wire Wire Line
	4500 5450 4700 5450
Text GLabel 4700 5450 2    50   Input ~ 0
DSI_D0P
Text GLabel 4400 5250 3    50   Input ~ 0
DSI_CLKN
Text GLabel 4300 5250 3    50   Input ~ 0
DSI_CLKP
Text GLabel 7100 5250 3    50   Input ~ 0
I2C2_SCL
Text GLabel 7000 5250 3    50   Input ~ 0
I2C2_SDA
Text GLabel 5700 2750 1    50   Input ~ 0
I2C3_SDA
Text GLabel 6300 5250 3    50   Input ~ 0
I2C3_SCL
$Comp
L Connector:TestPoint TP3
U 1 1 5D3F3D82
P 2800 950
F 0 "TP3" H 2858 1068 50  0000 L CNN
F 1 "TestPoint" H 2858 977 50  0000 L CNN
F 2 "TestPoint:TestPoint_Pad_1.0x1.0mm" H 3000 950 50  0001 C CNN
F 3 "~" H 3000 950 50  0001 C CNN
	1    2800 950 
	1    0    0    -1  
$EndComp
$Comp
L Connector:TestPoint TP5
U 1 1 5D3F43D9
P 3250 950
F 0 "TP5" H 3308 1068 50  0000 L CNN
F 1 "TestPoint" H 3308 977 50  0000 L CNN
F 2 "TestPoint:TestPoint_Pad_1.0x1.0mm" H 3450 950 50  0001 C CNN
F 3 "~" H 3450 950 50  0001 C CNN
	1    3250 950 
	1    0    0    -1  
$EndComp
$Comp
L Connector:TestPoint TP4
U 1 1 5D3F48F2
P 2800 1350
F 0 "TP4" H 2858 1468 50  0000 L CNN
F 1 "TestPoint" H 2858 1377 50  0000 L CNN
F 2 "TestPoint:TestPoint_Pad_1.0x1.0mm" H 3000 1350 50  0001 C CNN
F 3 "~" H 3000 1350 50  0001 C CNN
	1    2800 1350
	1    0    0    -1  
$EndComp
$Comp
L Connector:TestPoint TP6
U 1 1 5D3F4CE3
P 3250 1350
F 0 "TP6" H 3308 1468 50  0000 L CNN
F 1 "TestPoint" H 3308 1377 50  0000 L CNN
F 2 "TestPoint:TestPoint_Pad_1.0x1.0mm" H 3450 1350 50  0001 C CNN
F 3 "~" H 3450 1350 50  0001 C CNN
	1    3250 1350
	1    0    0    -1  
$EndComp
Text GLabel 6000 2750 1    50   Input ~ 0
BLUETOOTH_USART_TX
Text GLabel 5900 2750 1    50   Input ~ 0
BLUETOOTH_USART_RX
Text GLabel 4800 2750 1    50   Input ~ 0
USB_D+
Text GLabel 4700 2750 1    50   Input ~ 0
USB_D-
Text GLabel 4600 2750 1    50   Input ~ 0
USB_ID
$EndSCHEMATC
